<?xml version="1.0" encoding="UTF-8"?>
<svg width="240px" height="240px" viewBox="0 0 240 240" version="1.1" xmlns="http://www.w3.org/2000/svg" xmlns:xlink="http://www.w3.org/1999/xlink">
    <!-- Generator: Sketch 58 (84663) - https://sketch.com -->
    <title>svg-17_static</title>
    <desc>Created with Sketch.</desc>
    <g id="svg-17_static" stroke="none" stroke-width="1" fill="none" fill-rule="evenodd">
        <g id="Group-27" transform="translate(58.000000, 16.000000)">
            <path d="M73.758984,34.6548376 C70.7745383,18.2065339 66.6568957,8.16513207 61.5996071,4.59852051 C53.7920645,-0.907685289 42.4178686,0.419208595 36.2484351,7.54714312 C30.1404475,14.6040852 31.4407816,24.6930459 39.173024,30.1461468 C44.2932454,33.7571413 55.8701591,35.3044797 73.758984,34.6548376 Z" id="Oval" stroke="#FFFFFF" stroke-width="2.4"></path>
            <path d="M61.8121597,34.6548376 C79.7009846,35.3044797 91.2778983,33.7571413 96.3981198,30.1461468 C104.130362,24.6930459 105.430696,14.6040852 99.3227087,7.54714312 C93.1532751,0.419208595 81.7790792,-0.907685289 73.9715366,4.59852051 C68.9142481,8.16513207 64.7966055,18.2065339 61.8121597,34.6548376 Z" id="Oval" stroke="#FFFFFF" stroke-width="2.4"></path>
            <rect id="Rectangle" fill="#2AC276" x="0.185571872" y="38.7512761" width="56" height="185"></rect>
            <rect id="Rectangle" fill="#2AC276" x="79.3855719" y="38.7512761" width="56" height="185"></rect>
        </g>
    </g>
</svg>