<?xml version="1.0" encoding="UTF-8"?>
<svg width="107px" height="107px" viewBox="0 0 107 107" version="1.1" xmlns="http://www.w3.org/2000/svg" xmlns:xlink="http://www.w3.org/1999/xlink">
    <!-- Generator: Sketch 60.1 (88133) - https://sketch.com -->
    <title>Shape</title>
    <desc>Created with Sketch.</desc>
    <g id="4_Modals" stroke="none" stroke-width="1" fill="none" fill-rule="evenodd">
        <g id="Modals" transform="translate(-5262.000000, -696.000000)" fill="#2AC276" fill-rule="nonzero">
            <path d="M5315.2,696 C5344.58155,696 5368.4,719.818451 5368.4,749.2 C5368.4,778.581549 5344.58155,802.4 5315.2,802.4 C5285.81845,802.4 5262,778.581549 5262,749.2 C5262,719.818451 5285.81845,696 5315.2,696 Z M5315.2,700.2 C5288.13805,700.2 5266.2,722.138047 5266.2,749.2 C5266.2,776.261953 5288.13805,798.2 5315.2,798.2 C5342.26195,798.2 5364.2,776.261953 5364.2,749.2 C5364.2,722.138047 5342.26195,700.2 5315.2,700.2 Z M5342.5,728 L5347.4,732.973134 L5305.4,775.6 L5285.8,755.707463 L5290.7,750.734328 L5305.4,765.653731 L5342.5,728 Z" id="Shape"></path>
        </g>
    </g>
</svg>