<?xml version="1.0" encoding="UTF-8"?>
<svg viewBox="0 0 31 31" version="1.1" xmlns="http://www.w3.org/2000/svg" xmlns:xlink="http://www.w3.org/1999/xlink">
    <!-- Generator: Sketch 60 (88103) - https://sketch.com -->
    <title>Combined Shape</title>
    <desc>Created with Sketch.</desc>
    <g id="3-Font-Detail-Page" stroke="none" stroke-width="1" fill="none" fill-rule="evenodd">
        <g id="Font-Detail_768" transform="translate(-712.000000, -16.000000)" fill="#FFFFFF" fill-rule="nonzero">
            <path d="M740.798207,16.6255031 L742.515036,18.563592 L729.350036,31.6255031 L742.515036,44.6874143 L740.798207,46.6255031 L727.515036,33.4455031 L714.231865,46.6255031 L712.515036,44.6874143 L725.680036,31.6255031 L712.515036,18.563592 L714.231865,16.6255031 L727.515036,29.8045031 L740.798207,16.6255031 Z" id="Combined-Shape"></path>
        </g>
    </g>
</svg>