<?xml version="1.0" encoding="UTF-8"?>
<svg viewBox="0 0 55 55" version="1.1" xmlns="http://www.w3.org/2000/svg" xmlns:xlink="http://www.w3.org/1999/xlink">
    <!-- Generator: Sketch 60 (88103) - https://sketch.com -->
    <title>Shape</title>
    <desc>Created with Sketch.</desc>
    <g id="3-Font-Detail-Page" stroke="none" stroke-width="1" fill="none" fill-rule="evenodd">
        <g id="Confirmation-Modal" transform="translate(-716.000000, -584.000000)" fill="#242424" fill-rule="nonzero">
            <path d="M743.5,584 C728.312685,584 716,596.312123 716,611.5 C716,626.687877 728.312685,639 743.5,639 C758.687315,639 771,626.687877 771,611.5 C771,596.312123 758.687315,584 743.5,584 Z M746.189906,620.632789 C743.626072,620.632789 741.214787,619.258078 740.389098,617.697184 C740.389098,617.697184 739.009924,623.122344 738.720139,624.169127 C737.691997,627.870272 734.667683,631.572543 734.432339,631.875722 C734.268448,632.086653 733.906075,632.020843 733.868647,631.740726 C733.804565,631.269364 733.032183,626.600183 733.940668,622.792166 C734.39491,620.87972 736.993337,609.959653 736.993337,609.959653 C736.993337,609.959653 736.236833,608.456133 736.236833,606.233195 C736.236833,602.742981 738.276104,600.137555 740.815553,600.137555 C742.974481,600.137555 744.0168,601.745697 744.0168,603.67333 C744.0168,605.826519 742.635358,609.046178 741.922521,612.029594 C741.326505,614.527586 743.184306,616.565466 745.668179,616.565466 C750.166938,616.565466 753.194655,610.834878 753.194655,604.044007 C753.194655,598.883778 749.69228,595.019512 743.317006,595.019512 C736.116609,595.019512 731.626356,600.346799 731.626356,606.298443 C731.626356,608.349261 732.237683,609.797657 733.193804,610.916438 C733.632168,611.431111 733.694549,611.638105 733.535195,612.228714 C733.420075,612.662389 733.160913,613.705234 733.050897,614.117535 C732.892677,614.714893 732.40611,614.927512 731.861133,614.707581 C728.545899,613.364932 727,609.761658 727,605.71121 C727,599.021586 732.687389,591 743.968597,591 C753.0336,591 759,597.505691 759,604.490619 C759.000567,613.731109 753.821294,620.632789 746.189906,620.632789 Z" id="Shape"></path>
        </g>
    </g>
</svg>